<svg xmlns="http://www.w3.org/2000/svg" viewBox="6903 321 15 15">
  <defs>
    <style>
      .cls-1 {
        fill: #afafaf;
        font-size: 15px;
        font-family: Material-Design-Iconic-Font;
        letter-spacing: 0.2em;
      }
    </style>
  </defs>
  <text id="contract-icon" class="cls-1" transform="translate(6903 334)"><tspan x="0" y="0"></tspan></text>
</svg>
